<?xml version="1.0" standalone="no"?>
<!DOCTYPE svg PUBLIC "-//W3C//DTD SVG 20010904//EN"
 "http://www.w3.org/TR/2001/REC-SVG-20010904/DTD/svg10.dtd">
<svg version="1.0" xmlns="http://www.w3.org/2000/svg"
 width="600.000000pt" height="600.000000pt" viewBox="0 0 600.000000 600.000000"
 preserveAspectRatio="xMidYMid meet">

<g transform="translate(0.000000,600.000000) scale(0.100000,-0.100000)"
fill="#000000" stroke="none">
<path d="M2840 5139 c-653 -49 -1260 -404 -1622 -949 -80 -120 -194 -347 -235
-465 l-28 -80 -240 -5 c-232 -5 -240 -6 -240 -25 0 -20 7 -20 2535 -20 2528 0
2535 0 2535 20 0 19 -8 20 -249 25 l-250 5 -42 111 c-336 889 -1219 1454
-2164 1383z m410 -80 c342 -38 694 -177 980 -390 98 -72 257 -215 293 -263 27
-35 26 -34 -50 18 -152 105 -329 178 -522 217 -128 26 -393 36 -542 20 -451
-48 -918 -229 -1307 -505 l-93 -66 -82 36 c-186 81 -376 193 -435 256 l-23 25
83 78 c478 451 1052 645 1698 574z m465 -549 c293 -50 525 -167 721 -364 55
-55 125 -137 154 -180 48 -73 139 -250 155 -303 l6 -23 -1085 0 c-597 0 -1086
3 -1086 8 0 4 22 53 49 108 l49 101 -82 7 c-155 13 -383 72 -574 147 l-74 29
-67 -59 c-86 -77 -195 -191 -261 -275 l-52 -66 -269 0 c-148 0 -269 2 -269 4
0 3 15 45 32 93 l33 88 5 -45 c7 -57 15 -70 45 -70 44 0 105 95 105 165 0 28
-28 65 -48 65 -21 -1 -43 -17 -65 -50 -36 -53 -14 1 44 105 61 111 167 266
231 340 l35 39 53 -46 c29 -25 100 -73 159 -107 316 -181 742 -321 976 -321
68 0 71 1 88 29 41 70 143 197 217 271 107 107 220 190 344 250 171 85 235 93
431 60z"/>
<path d="M2923 4945 c-40 -17 -59 -50 -42 -71 44 -53 168 -59 215 -12 22 22
24 29 14 48 -24 45 -122 64 -187 35z"/>
<path d="M2382 4859 c-23 -12 -49 -34 -58 -50 -13 -26 -13 -30 6 -49 37 -37
142 -20 197 32 72 68 -40 119 -145 67z"/>
<path d="M1915 4651 c-43 -19 -89 -66 -101 -103 -10 -32 29 -61 70 -53 46 9
108 56 131 97 19 36 19 37 1 57 -23 26 -49 26 -101 2z"/>
<path d="M732 3523 c-36 -14 -42 -57 -42 -288 0 -289 2 -294 130 -294 104 0
130 24 130 119 0 48 -2 51 -22 48 -20 -3 -23 -10 -26 -53 -2 -27 -8 -55 -14
-62 -13 -17 -120 -17 -136 -1 -17 17 -17 469 0 486 16 16 123 16 136 -1 6 -7
12 -35 14 -62 3 -43 6 -50 26 -53 20 -3 22 0 22 48 0 55 -19 104 -45 114 -20
7 -154 7 -173 -1z"/>
<path d="M1092 3523 c-36 -14 -42 -57 -42 -288 0 -290 2 -294 132 -295 73 0
77 1 102 31 l26 31 0 229 c0 240 -6 278 -45 293 -20 7 -154 7 -173 -1z m156
-45 c17 -17 17 -469 0 -486 -7 -7 -37 -12 -68 -12 -31 0 -61 5 -68 12 -17 17
-17 469 0 486 16 16 120 16 136 0z"/>
<path d="M1410 3235 c0 -288 0 -295 20 -295 19 0 20 7 20 252 0 138 3 249 6
245 3 -3 32 -97 63 -209 39 -142 60 -203 70 -203 10 0 31 60 70 203 l56 202 3
-245 2 -245 25 0 25 0 0 295 0 295 -34 0 c-39 0 -32 18 -102 -242 -21 -82 -42
-148 -45 -148 -3 0 -29 88 -58 195 l-54 195 -33 0 -34 0 0 -295z"/>
<path d="M1870 3235 c0 -287 1 -295 20 -295 18 0 20 8 22 118 l3 117 75 3 c41
1 85 7 98 14 33 17 44 71 40 185 -3 91 -6 104 -27 127 -23 25 -30 26 -128 26
l-103 0 0 -295z m198 243 c17 -17 17 -229 0 -246 -7 -7 -42 -12 -85 -12 l-73
0 0 135 0 135 73 0 c43 0 78 -5 85 -12z"/>
<path d="M2280 3528 c-1 -2 -29 -133 -64 -293 -59 -276 -61 -290 -43 -293 24
-4 33 9 41 59 l6 39 94 0 94 0 7 -50 c6 -44 10 -50 31 -50 13 0 24 3 24 7 0 4
-28 136 -62 295 l-62 288 -33 0 c-18 0 -33 -1 -33 -2z m75 -243 c19 -93 35
-175 35 -182 0 -10 -22 -13 -79 -13 l-79 0 18 83 c10 45 28 131 41 192 12 60
24 105 26 100 1 -6 18 -86 38 -180z"/>
<path d="M2470 3510 c0 -18 7 -20 55 -20 l55 0 0 -275 c0 -268 0 -275 20 -275
20 0 20 7 20 275 l0 275 55 0 c48 0 55 2 55 20 0 19 -7 20 -130 20 -123 0
-130 -1 -130 -20z"/>
<path d="M2810 3235 l0 -295 25 0 25 0 0 295 0 295 -25 0 -25 0 0 -295z"/>
<path d="M2960 3235 l0 -295 99 0 c91 0 102 2 128 24 28 24 28 26 28 139 0 99
-3 118 -19 136 -11 12 -14 21 -8 21 20 0 35 71 30 147 -4 59 -10 78 -28 98
-22 23 -30 25 -127 25 l-103 0 0 -295z m198 243 c8 -8 12 -45 12 -100 0 -104
-6 -111 -103 -106 l-62 3 -3 108 -3 107 74 0 c43 0 78 -5 85 -12z m0 -260 c16
-16 16 -210 0 -226 -7 -7 -42 -12 -85 -12 l-73 0 0 125 0 125 73 0 c43 0 78
-5 85 -12z"/>
<path d="M3320 3235 l0 -295 105 0 c98 0 105 1 105 20 0 18 -7 20 -85 20 l-85
0 0 275 c0 268 0 275 -20 275 -20 0 -20 -7 -20 -295z"/>
<path d="M3610 3235 l0 -295 110 0 c103 0 110 1 110 20 0 18 -7 20 -85 20
l-85 0 0 125 0 125 60 0 c53 0 60 2 60 20 0 18 -7 20 -60 20 l-60 0 0 110 0
110 85 0 c78 0 85 2 85 20 0 19 -7 20 -110 20 l-110 0 0 -295z"/>
<path d="M4050 3523 c0 -10 89 -532 95 -560 4 -18 12 -23 35 -23 35 0 29 -19
75 244 19 109 36 200 38 202 4 4 61 -307 73 -399 6 -45 8 -47 40 -47 27 0 33
4 38 28 3 15 24 135 46 267 22 132 43 252 46 268 5 22 2 27 -15 27 -24 0 -20
15 -66 -255 -19 -115 -38 -221 -41 -235 -5 -16 -23 62 -53 230 -41 230 -48
255 -66 258 -19 3 -23 -15 -65 -248 -25 -137 -47 -250 -50 -250 -3 0 -21 91
-39 203 -47 288 -49 297 -72 297 -10 0 -19 -3 -19 -7z"/>
<path d="M4610 3235 l0 -295 25 0 25 0 0 295 0 295 -25 0 -25 0 0 -295z"/>
<path d="M4740 3510 c0 -17 7 -20 50 -20 l50 0 0 -275 0 -275 25 0 25 0 0 275
0 275 50 0 c43 0 50 3 50 20 0 19 -7 20 -125 20 -118 0 -125 -1 -125 -20z"/>
<path d="M5070 3235 l0 -295 25 0 25 0 0 145 0 145 85 0 85 0 0 -145 c0 -138
1 -145 20 -145 20 0 20 7 20 295 0 287 -1 295 -20 295 -18 0 -20 -8 -22 -127
l-3 -128 -82 -3 -83 -3 0 131 0 130 -25 0 -25 0 0 -295z"/>
<path d="M739 2855 c-42 -23 -49 -62 -48 -254 0 -208 8 -240 59 -258 45 -15
410 -17 463 -2 48 13 69 57 65 132 -3 55 -2 54 -90 71 l-38 7 0 -61 0 -60
-165 0 -165 0 0 170 0 170 164 0 165 0 3 -47 c2 -36 7 -48 18 -46 8 1 37 4 64
8 l48 7 -4 64 c-3 50 -9 69 -26 87 -22 21 -29 22 -255 24 -188 2 -237 0 -258
-12z"/>
<path d="M1400 2863 c1 -5 61 -71 135 -148 l135 -140 0 -122 0 -123 65 0 65 0
0 126 0 127 92 96 c51 53 113 117 137 144 l45 47 -74 0 -75 0 -89 -101 c-49
-55 -92 -98 -96 -97 -3 2 -46 47 -94 101 l-88 97 -79 0 c-44 0 -79 -3 -79 -7z"/>
<path d="M2220 2600 l0 -270 60 0 60 0 0 105 0 105 185 0 c197 0 243 8 264 48
6 12 11 66 11 121 0 91 -2 102 -24 128 l-24 28 -266 3 -266 3 0 -271z m444
167 c13 -10 17 -24 14 -67 l-3 -55 -167 -3 -168 -2 0 70 0 70 153 0 c109 0
158 -4 171 -13z"/>
<path d="M2990 2600 l0 -270 65 0 65 0 0 115 0 115 195 0 195 0 0 -115 0 -116
63 3 62 3 3 268 2 267 -65 0 -65 0 0 -105 0 -105 -195 0 -195 0 0 105 0 105
-65 0 -65 0 0 -270z"/>
<path d="M3910 2600 l0 -270 278 2 277 3 3 48 3 47 -215 0 -216 0 0 70 0 70
120 0 120 0 0 45 0 45 -120 0 -120 0 0 60 0 60 210 0 210 0 0 45 0 45 -275 0
-275 0 0 -270z"/>
<path d="M4700 2600 l0 -270 60 0 60 0 0 105 0 105 56 0 56 0 113 -105 113
-106 88 3 87 3 -124 100 -123 100 72 5 c57 4 76 10 94 28 21 21 23 31 23 137
0 170 20 159 -310 163 l-265 3 0 -271z m450 160 c13 -20 13 -87 0 -111 -10
-18 -23 -19 -170 -19 l-160 0 0 76 0 75 160 -3 c130 -2 163 -6 170 -18z"/>
<path d="M690 2245 l0 -25 2320 0 2320 0 0 25 0 25 -2320 0 -2320 0 0 -25z"/>
<path d="M822 2134 c-19 -13 -22 -24 -22 -83 0 -97 4 -100 170 -103 l135 -3 0
-50 0 -50 -132 -3 -133 -3 0 31 c0 34 1 34 -35 20 -23 -9 -26 -14 -21 -38 14
-55 34 -62 192 -62 177 0 184 4 184 105 0 100 -8 105 -175 105 l-135 0 0 50 0
50 125 0 125 0 0 -25 c0 -27 16 -32 44 -12 14 10 15 18 7 39 -16 42 -40 48
-178 48 -100 0 -133 -3 -151 -16z"/>
<path d="M1700 2069 l0 -81 -85 -93 c-47 -51 -85 -95 -85 -99 0 -3 15 -6 33
-6 29 0 40 9 85 64 84 103 74 102 156 12 64 -70 74 -77 103 -74 l33 3 -90 100
-90 100 0 78 0 77 -30 0 -30 0 0 -81z"/>
<path d="M2344 2136 c-16 -12 -19 -27 -19 -86 0 -98 3 -100 172 -100 l133 0 0
-55 0 -55 -135 0 -135 0 0 29 c0 25 -3 28 -25 23 -20 -3 -25 -10 -25 -33 0
-16 9 -38 20 -49 18 -18 33 -20 163 -20 183 0 187 2 187 104 0 104 -3 106
-168 106 l-132 0 0 50 0 50 125 0 125 0 0 -26 c0 -20 4 -25 16 -20 9 3 20 6
25 6 17 0 9 50 -11 70 -18 18 -33 20 -158 20 -104 0 -143 -4 -158 -14z"/>
<path d="M3120 2125 c0 -25 1 -25 80 -25 l80 0 0 -155 0 -155 30 0 30 0 0 155
0 155 85 0 c84 0 85 0 85 25 l0 25 -195 0 -195 0 0 -25z"/>
<path d="M4000 1970 l0 -180 175 0 175 0 0 25 0 25 -145 0 -145 0 0 55 0 55
85 0 c84 0 85 0 85 25 0 25 -1 25 -85 25 l-85 0 0 50 0 49 143 3 c139 3 142 4
145 26 l3 22 -175 0 -176 0 0 -180z"/>
<path d="M4780 1970 l0 -180 25 0 25 0 0 141 0 142 81 -112 c45 -61 86 -111
93 -111 6 0 45 50 86 111 l75 111 3 -141 3 -141 24 0 25 0 0 180 0 180 -27 0
c-24 0 -39 -16 -107 -115 -44 -63 -80 -115 -81 -115 -2 0 -41 52 -89 115 -70
93 -91 115 -111 115 l-25 0 0 -180z"/>
<path d="M5255 2140 c3 -5 13 -10 21 -10 10 0 14 -14 14 -54 0 -30 5 -58 10
-61 6 -4 10 17 10 54 0 54 2 61 20 61 11 0 20 5 20 10 0 6 -23 10 -51 10 -31
0 -48 -4 -44 -10z"/>
<path d="M5368 2088 c-2 -35 0 -67 4 -72 4 -6 8 6 8 25 0 55 15 65 29 20 6
-22 16 -43 20 -46 5 -3 18 21 29 52 l20 58 1 -52 c1 -28 6 -55 11 -58 6 -4 10
20 10 64 0 88 -19 96 -48 19 l-19 -52 -17 52 c-24 72 -43 68 -48 -10z"/>
<path d="M474 1695 c-3 -7 -3 -19 1 -25 4 -7 143 -10 424 -10 l418 0 86 -98
c279 -315 649 -541 1065 -648 206 -53 341 -67 587 -61 131 3 244 11 300 21
516 95 950 346 1295 748 l32 38 431 2 c424 3 432 3 432 23 0 20 -8 20 -2533
23 -2208 2 -2533 0 -2538 -13z m1329 -190 l157 -155 -73 0 c-95 0 -178 21
-224 56 -49 36 -243 232 -243 245 0 5 49 9 113 9 l114 0 156 -155z m598 86
c-110 -123 -227 -228 -290 -258 -33 -15 -60 -31 -60 -35 -1 -12 181 -120 288
-171 129 -61 337 -130 458 -153 l92 -18 -29 -18 c-26 -15 -40 -16 -102 -8
-148 19 -157 21 -171 48 -18 37 -55 61 -117 74 -62 13 -110 5 -110 -17 0 -22
-14 -19 -140 33 -107 44 -115 49 -115 74 -2 73 -182 168 -213 113 -7 -13 -15
-11 -53 16 -69 50 -69 51 1 44 80 -8 185 12 261 50 38 19 93 67 184 160 88 90
138 133 154 134 20 1 15 -8 -38 -68z m798 -667 c2 -2 -25 -4 -62 -4 -36 0 -69
4 -72 10 -5 9 124 3 134 -6z"/>
</g>
</svg>
